{
    "apps": [
      {
        "name": "testserver",
        "script": "dist/index.js",
        "cwd": "/home/ubuntu/testserver/current",
        "error_file": "/home/ubuntu/testserver/logs/web.err.log",
        "out_file": "/home/ubuntu/testserver/logs/web.out.log",
        "watch": false,
        "exec_mode": "cluster",
        "env": {
          "NODE_ENV": "development"
        },
        "env_production": {
          "NODE_ENV": "production"
        }
      }
    ],
    "deploy": {
      "production": {
        "user": "ubuntu",
        "host": [
          "54.39.180.249"
        ],
        "ref": "origin/main",
        "repo": "git@gitlab.com:vnanhkhoa/testserver.git",
        "path": "/home/ubuntu/testserver",
        "post-setup": "npm install; npm run build; pm2 start ecosystem.config.json --env production",
        "post-deploy": "npm install; npm run build; pm2 start ecosystem.config.json --env production",
        "ssh_options": [
          "StrictHostKeyChecking=no",
          "PasswordAuthentication=no"
        ]
      }
    }
  }